%YAML 1.1
%TAG !u! tag:unity3d.com,2011:
--- !u!1045 &1
EditorBuildSettings:
  m_ObjectHideFlags: 0
  serializedVersion: 2
  m_Scenes:
  - enabled: 1
    path: Assets/Scenes/SampleScene.unity
    guid: 99c9720ab356a0642a771bea13969a05
  - enabled: 1
    path: Assets/Localization/LoadingScene.unity
    guid: 440f2ffee5fe3ee4db0eca19365f4217
  - enabled: 1
    path: Assets/Localization/MainScene.unity
    guid: 1f2c42aa37e116347badd47c74a2db93
  m_configObjects: {}
