%YAML 1.1
%TAG !u! tag:unity3d.com,2011:
--- !u!114 &11400000
MonoBehaviour:
  m_ObjectHideFlags: 0
  m_CorrespondingSourceObject: {fileID: 0}
  m_PrefabInternal: {fileID: 0}
  m_GameObject: {fileID: 0}
  m_Enabled: 1
  m_EditorHideFlags: 0
  m_Script: {fileID: 11500000, guid: 9dec4fe3d6a91804e9e377ef6b0276f3, type: 3}
  m_Name: Language
  m_EditorClassIdentifier: 
  m_langDB:
  - LangId: 
    items: []
  - LangId: 
    items: []
